%YAML 1.1
%TAG !u! tag:unity3d.com,2011:
--- !u!78 &1
TagManager:
  serializedVersion: 2
  tags:
  - Enemy
  - Boss
  - DeathDoor
  - correct_ans_block
  - incorrect_ans_block
  - Fire_Enemy
  - Vert_Bound
  - ship
  - ship_part
  - food
  - npc
  layers:
  - Default
  - TransparentFX
  - Ignore Raycast
  - 
  - Water
  - UI
  - 
  - 
  - 
  - 
  - 
  - 
  - 
  - 
  - 
  - 
  - 
  - 
  - 
  - 
  - 
  - 
  - 
  - 
  - 
  - 
  - 
  - 
  - 
  - 
  - 
  - 
  m_SortingLayers:
  - name: Default
    uniqueID: 0
    locked: 0
  - name: Ground
    uniqueID: 3592530923
    locked: 0
  - name: Overlays
    uniqueID: 2274056873
    locked: 0
  - name: Player
    uniqueID: 2554039485
    locked: 0
